…
new_2019_Q1$usertype[new_2019_Q1$usertype == "Customer"] <- "casual"
```

## Check for any null values

Next we can check for any missing or null values

``` r
null_values_2019 <- new_2019_Q1[!complete.cases(new_2019_Q1),]
null_values_2019
```

    ## # A tibble: 19,711 × 10
    ##    start_time          end_time            bikeid tripduration start_station_id
    ##    <dttm>              <dttm>               <dbl>        <dbl>            <dbl>
    ##  1 2019-01-01 00:29:19 2019-01-01 01:08:12   3914         2333               35
    ##  2 2019-01-01 00:29:28 2019-01-01 01:07:49   3355         2301               35
    ##  3 2019-01-01 01:10:48 2019-01-01 01:32:28   2517         1300              290
    ##  4 2019-01-01 01:17:23 2019-01-01 01:33:30    374          967              367
    ##  5 2019-01-01 01:17:33 2019-01-01 01:33:51   1776          978              367
    ##  6 2019-01-01 01:17:59 2019-01-01 01:40:45    341         1366              316
    ##  7 2019-01-01 01:18:17 2019-01-01 01:41:01   4507         1364              316
    ##  8 2019-01-01 01:23:13 2019-01-01 02:07:47    628         2674              260
    ##  9 2019-01-01 01:46:09 2019-01-01 02:07:32   4333         1283               35
    ## 10 2019-01-01 01:46:14 2019-01-01 02:07:13   3077         1259               35
    ## # ℹ 19,701 more rows
    ## # ℹ 5 more variables: start_station_name <chr>, end_station_id <dbl>,
    ## #   end_station_name <chr>, usertype <chr>, gender <chr>
…
**2019:** We don’t need the biked; **2019:** We do need the gender;
**2020:** Add a new column for gender so that it lines up with 2019
table

There is no primary key but each of the new dataframes have the same
columns/vectors

``` r
join_2019_Q1_data <- select(new_2019_Q1, usertype, start_time, start_weekday, tripduration, start_station_id, start_station_name, end_station_id, end_station_name, gender)
join_2019_Q1_data
```

    ## # A tibble: 365,069 × 9
    ##    usertype start_time          start_weekday tripduration          
    ##    <chr>    <dttm>              <chr>         <Duration>            
    ##  1 member   2019-01-01 00:04:37 Tuesday       390s (~6.5 minutes)   
    ##  2 member   2019-01-01 00:08:13 Tuesday       441s (~7.35 minutes)  
    ##  3 member   2019-01-01 00:13:23 Tuesday       829s (~13.82 minutes) 
    ##  4 member   2019-01-01 00:13:45 Tuesday       1783s (~29.72 minutes)
    ##  5 member   2019-01-01 00:14:52 Tuesday       364s (~6.07 minutes)  
    ##  6 member   2019-01-01 00:15:33 Tuesday       216s (~3.6 minutes)   
    ##  7 member   2019-01-01 00:16:06 Tuesday       177s (~2.95 minutes)  
    ##  8 member   2019-01-01 00:18:41 Tuesday       100s (~1.67 minutes)  
    ##  9 member   2019-01-01 00:18:43 Tuesday       1727s (~28.78 minutes)
    ## 10 member   2019-01-01 00:19:18 Tuesday       336s (~5.6 minutes)   
    ## # ℹ 365,059 more rows
    ## # ℹ 5 more variables: start_station_id <dbl>, start_station_name <chr>,
    ## #   end_station_id <dbl>, end_station_name <chr>, gender <chr>

``` r
join_2020_Q1_data <- new_2020_Q1 %>%
  mutate(gender = NA) %>%
  select(usertype, start_time, start_weekday, tripduration, start_station_id, start_station_name, end_station_id, end_station_name, gender)
join_2020_Q1_data
```

    ## # A tibble: 426,887 × 9
    ##    usertype start_time          start_weekday tripduration        
    ##    <chr>    <dttm>              <chr>         <Duration>          
    ##  1 member   2020-01-21 20:06:59 Tuesday       451s (~7.52 minutes)
    ##  2 member   2020-01-30 14:22:39 Thursday      223s (~3.72 minutes)
    ##  3 member   2020-01-09 19:29:26 Thursday      171s (~2.85 minutes)
    ##  4 member   2020-01-06 16:17:07 Monday        529s (~8.82 minutes)
    ##  5 member   2020-01-30 08:37:16 Thursday      332s (~5.53 minutes)
    ##  6 member   2020-01-10 12:33:05 Friday        289s (~4.82 minutes)
    ##  7 member   2020-01-10 13:07:35 Friday        289s (~4.82 minutes)
    ##  8 member   2020-01-10 07:24:53 Friday        297s (~4.95 minutes)
    ##  9 member   2020-01-31 16:37:16 Friday        295s (~4.92 minutes)
    ## 10 member   2020-01-31 09:39:17 Friday        203s (~3.38 minutes)
    ## # ℹ 426,877 more rows
    ## # ℹ 5 more variables: start_station_id <dbl>, start_station_name <chr>,
    ## #   end_station_id <dbl>, end_station_name <chr>, gender <lgl>

``` r
final_data_2019_2020 <- rbind(join_2019_Q1_data, join_2020_Q1_data)
final_data_2019_2020
```

    ## # A tibble: 791,956 × 9
    ##    usertype start_time          start_weekday tripduration          
    ##    <chr>    <dttm>              <chr>         <Duration>            
    ##  1 member   2019-01-01 00:04:37 Tuesday       390s (~6.5 minutes)   
    ##  2 member   2019-01-01 00:08:13 Tuesday       441s (~7.35 minutes)  
    ##  3 member   2019-01-01 00:13:23 Tuesday       829s (~13.82 minutes) 
    ##  4 member   2019-01-01 00:13:45 Tuesday       1783s (~29.72 minutes)
    ##  5 member   2019-01-01 00:14:52 Tuesday       364s (~6.07 minutes)  
    ##  6 member   2019-01-01 00:15:33 Tuesday       216s (~3.6 minutes)   
    ##  7 member   2019-01-01 00:16:06 Tuesday       177s (~2.95 minutes)  
    ##  8 member   2019-01-01 00:18:41 Tuesday       100s (~1.67 minutes)  
    ##  9 member   2019-01-01 00:18:43 Tuesday       1727s (~28.78 minutes)
    ## 10 member   2019-01-01 00:19:18 Tuesday       336s (~5.6 minutes)   
    ## # ℹ 791,946 more rows
    ## # ℹ 5 more variables: start_station_id <dbl>, start_station_name <chr>,
    ## #   end_station_id <dbl>, end_station_name <chr>, gender <chr>
…
